<svg xmlns="http://www.w3.org/2000/svg" viewBox="0 0 8 8">
  <path d="M 1 1 h 6 v 1 h -6 z M 2 1 l .5 -.5 h 3 l .5 .5 M 1.5 2 v 5.5 h 5 v -5.5 M 2.5 3 v 3.5 M 3.5 3 v 3.5 M 4.5 3 v 3.5 M 5.5 3 v 3.5" fill="transparent" stroke="currentColor" stroke-width=".5" stroke-linejoin="round" stroke-linecap="round" />
</svg>
