<svg xmlns="http://www.w3.org/2000/svg" viewBox="0 0 8 8">
  <path d="M .5 2 l 1.5 -1.5 l 1 1 l -1.5 1.5 z M 1.5 3 l 4.5 4.5 h 1.5 v -1.5 l -4.5 -4.5 M 6 7.5 l 1.5 -1.5" fill="transparent" stroke="currentColor" stroke-width=".5" stroke-linejoin="round" stroke-linecap="round" />
</svg>
